scRNA-seq Data Analysis • blaseRtools
…
Running UMAP with multiple cores will generate slightly different
results each time you run it, so you want to get to this point and then
save your data object with
save(vignette_cds, file = "<directory>/vignette_cds.rda", compress = "gzip").

At this point it is worth exploring the cell and gene metadata to
understand how things are arranged. We can use the bb_cellmeta and
bb_rowmeta convenience functions to return the metadata in the form of a
tibble. This is more convenient for exploring and manipulating, but if
you want to modify or add back to the CDS object, you should use the
form colData(CDS)$new_column <- data

# Cell metadata
bb_cellmeta(vignette_cds) 
#> # A tibble: 1,160 × 16
#>    cell_id          barcode Size_Factor date  equipment sample prealignment_dim1
#>    <chr>            <chr>         <dbl> <chr> <chr>     <chr>              <dbl>
#>  1 AATCACGAGGATCAC… AATCAC…       3.20  2021… chromium  chrom…              9.42
#>  2 AATCACGAGTGGCCT… AATCAC…       0.990 2021… chromium  chrom…             -7.10
#>  3 AATCACGCACAGAGA… AATCAC…       0.751 2021… chromium  chrom…             -4.14
#>  4 AATCACGCACCAGCG… AATCAC…       3.08  2021… chromium  chrom…              6.97
#>  5 AATCACGCAGGTTCA… AATCAC…       0.627 2021… chromium  chrom…             -4.12
#>  6 AATCACGCATATCTG… AATCAC…       0.830 2021… chromium  chrom…             -3.56
#>  7 AATCACGGTCAAGCG… AATCAC…       0.931 2021… chromium  chrom…             -4.04
#>  8 AATCACGGTTGGACC… AATCAC…       0.596 2021… chromium  chrom…             -7.70
#>  9 AATCACGTCCCGTTG… AATCAC…       1.16  2021… chromium  chrom…             -3.28
#> 10 AATCACGTCGTTCCT… AATCAC…       0.746 2021… chromium  chrom…             -5.68
#> # ℹ 1,150 more rows
#> # ℹ 9 more variables: prealignment_dim2 <dbl>, leiden <fct>, partition <fct>,
#> #   louvain <fct>, seurat_dim1 <dbl>, seurat_dim2 <dbl>,
#> #   seurat_celltype_l1 <chr>, seurat_celltype_l2 <chr>, leiden_assignment <fct>

# Gene metadata
bb_rowmeta(vignette_cds)
#> # A tibble: 36,398 × 8
#>    feature_id  id    gene_short_name data_type module module_labeled supermodule
#>    <chr>       <chr> <chr>           <chr>     <fct>  <fct>          <fct>      
#>  1 ENSG000002… ENSG… MIR1302-2HG     Gene Exp… NA     No Module      NA         
#>  2 ENSG000002… ENSG… FAM138A         Gene Exp… NA     No Module      NA         
#>  3 ENSG000001… ENSG… OR4F5           Gene Exp… NA     No Module      NA         
#>  4 ENSG000002… ENSG… AL627309.1      Gene Exp… NA     No Module      NA         
#>  5 ENSG000002… ENSG… AL627309.3      Gene Exp… NA     No Module      NA         
#>  6 ENSG000002… ENSG… AL627309.2      Gene Exp… NA     No Module      NA         
#>  7 ENSG000002… ENSG… AL627309.5      Gene Exp… 1      Module 1       1          
#>  8 ENSG000002… ENSG… AL627309.4      Gene Exp… NA     No Module      NA         
#>  9 ENSG000002… ENSG… AP006222.2      Gene Exp… NA     No Module      NA         
#> 10 ENSG000002… ENSG… AL732372.1      Gene Exp… NA     No Module      NA         
#> # ℹ 36,388 more rows
#> # ℹ 1 more variable: supermodule_labeled <fct>
…
You can see that the pre-alignment dimensions are stored in the cell
metadata so you can plot them later if you want.

bb_cellmeta(vignette_cds)
#> # A tibble: 1,160 × 16
#>    cell_id          barcode Size_Factor date  equipment sample prealignment_dim1
#>    <chr>            <chr>         <dbl> <chr> <chr>     <chr>              <dbl>
#>  1 AATCACGAGGATCAC… AATCAC…       3.20  2021… chromium  chrom…              9.42
#>  2 AATCACGAGTGGCCT… AATCAC…       0.990 2021… chromium  chrom…             -7.10
#>  3 AATCACGCACAGAGA… AATCAC…       0.751 2021… chromium  chrom…             -4.14
#>  4 AATCACGCACCAGCG… AATCAC…       3.08  2021… chromium  chrom…              6.97
#>  5 AATCACGCAGGTTCA… AATCAC…       0.627 2021… chromium  chrom…             -4.12
#>  6 AATCACGCATATCTG… AATCAC…       0.830 2021… chromium  chrom…             -3.56
#>  7 AATCACGGTCAAGCG… AATCAC…       0.931 2021… chromium  chrom…             -4.04
#>  8 AATCACGGTTGGACC… AATCAC…       0.596 2021… chromium  chrom…             -7.70
#>  9 AATCACGTCCCGTTG… AATCAC…       1.16  2021… chromium  chrom…             -3.28
#> 10 AATCACGTCGTTCCT… AATCAC…       0.746 2021… chromium  chrom…             -5.68
#> # ℹ 1,150 more rows
#> # ℹ 9 more variables: prealignment_dim2 <dbl>, leiden <fct>, partition <fct>,
#> #   louvain <fct>, seurat_dim1 <dbl>, seurat_dim2 <dbl>,
#> #   seurat_celltype_l1 <chr>, seurat_celltype_l2 <chr>, leiden_assignment <fct>
…
Using this function requires using default clustering parameters in
the underlying monocle functions. If you want to modify those (usually
not necessary) you need to use the original monocle functions.

# Identify clusters and calculate top markers
marker_file <- tempfile()
vignette_cds <- bb_triplecluster(vignette_cds, n_top_markers = 50, outfile = marker_file, n_cores = 8)
vignette_top_markers <- read_csv(marker_file)

vignette_top_markers
#> # A tibble: 1,100 × 11
#>    gene_id         gene_short_name cluster_method cell_group  marker_score
#>    <chr>           <chr>           <chr>          <chr>              <dbl>
#>  1 ENSG00000265972 TXNIP           partition      partition 1        0.998
#>  2 ENSG00000081237 PTPRC           partition      partition 1        0.997
#>  3 ENSG00000163041 H3F3A           partition      partition 1        0.997
#>  4 ENSG00000034510 TMSB10          partition      partition 1        1    
#>  5 ENSG00000114942 EEF1B2          partition      partition 1        0.991
#>  6 ENSG00000187514 PTMA            partition      partition 1        1    
#>  7 ENSG00000232112 TMA7            partition      partition 1        0.984
#>  8 ENSG00000269028 MTRNR2L12       partition      partition 1        0.998
#>  9 ENSG00000145741 BTF3            partition      partition 1        0.985
#> 10 ENSG00000127184 COX7C           partition      partition 1        0.991
#> # ℹ 1,090 more rows
#> # ℹ 6 more variables: mean_expression <dbl>, fraction_expressing <dbl>,
#> #   specificity <dbl>, pseudo_R2 <dbl>, marker_test_p_value <dbl>,
#> #   marker_test_q_value <dbl>
…
Gene modules can have dozens or thousands of genes depending on your
dataset. If they are evenly expressed across all cells (like
housekeeping genes), some genes may not end up in a module.

Note: this is a computationally-intensive operation which may
overload your computer if you use too many cores. It is also
non-deterministic so you need to save the CDS object when you are
done.

# Identify gene modules and add them to the gene metadata.
vignette_cds <- bb_gene_modules(vignette_cds, n_cores = 24)

bb_rowmeta(vignette_cds)
#> # A tibble: 36,398 × 8
#>    feature_id  id    gene_short_name data_type module module_labeled supermodule
#>    <chr>       <chr> <chr>           <chr>     <fct>  <fct>          <fct>      
#>  1 ENSG000002… ENSG… MIR1302-2HG     Gene Exp… NA     No Module      NA         
#>  2 ENSG000002… ENSG… FAM138A         Gene Exp… NA     No Module      NA         
#>  3 ENSG000001… ENSG… OR4F5           Gene Exp… NA     No Module      NA         
#>  4 ENSG000002… ENSG… AL627309.1      Gene Exp… NA     No Module      NA         
#>  5 ENSG000002… ENSG… AL627309.3      Gene Exp… NA     No Module      NA         
#>  6 ENSG000002… ENSG… AL627309.2      Gene Exp… NA     No Module      NA         
#>  7 ENSG000002… ENSG… AL627309.5      Gene Exp… 1      Module 1       1          
#>  8 ENSG000002… ENSG… AL627309.4      Gene Exp… NA     No Module      NA         
#>  9 ENSG000002… ENSG… AP006222.2      Gene Exp… NA     No Module      NA         
#> 10 ENSG000002… ENSG… AL732372.1      Gene Exp… NA     No Module      NA         
#> # ℹ 36,388 more rows
#> # ℹ 1 more variable: supermodule_labeled <fct>
…
If you want to use this, you need to download this file: https://atlas.fredhutch.org/data/nygc/multimodal/pbmc_multimodal.h5seurat.
It is about 2GB so we don’t even distribute it with blaseRdata. You need
to download that and put it somewhere on your system where you are
running the analysis. Then run this, substituting in the appropriate
file path:

# Annotate the PBMC data
vignette_cds <- bb_seurat_anno(vignette_cds, reference = "~/workspace_pipelines/sc_refdata/seurat_pbmc_reference_20210506/pbmc_multimodal.h5seurat")

This function has added two celltype assignments to the cell
metadata. It has also added suerat umap dims. These are where the cells
would’ve landed if they were processed in the reference dataset.

bb_cellmeta(vignette_cds)
#> # A tibble: 1,160 × 16
#>    cell_id          barcode Size_Factor date  equipment sample prealignment_dim1
#>    <chr>            <chr>         <dbl> <chr> <chr>     <chr>              <dbl>
#>  1 AATCACGAGGATCAC… AATCAC…       3.20  2021… chromium  chrom…              9.42
#>  2 AATCACGAGTGGCCT… AATCAC…       0.990 2021… chromium  chrom…             -7.10
#>  3 AATCACGCACAGAGA… AATCAC…       0.751 2021… chromium  chrom…             -4.14
#>  4 AATCACGCACCAGCG… AATCAC…       3.08  2021… chromium  chrom…              6.97
#>  5 AATCACGCAGGTTCA… AATCAC…       0.627 2021… chromium  chrom…             -4.12
#>  6 AATCACGCATATCTG… AATCAC…       0.830 2021… chromium  chrom…             -3.56
#>  7 AATCACGGTCAAGCG… AATCAC…       0.931 2021… chromium  chrom…             -4.04
#>  8 AATCACGGTTGGACC… AATCAC…       0.596 2021… chromium  chrom…             -7.70
#>  9 AATCACGTCCCGTTG… AATCAC…       1.16  2021… chromium  chrom…             -3.28
#> 10 AATCACGTCGTTCCT… AATCAC…       0.746 2021… chromium  chrom…             -5.68
#> # ℹ 1,150 more rows
#> # ℹ 9 more variables: prealignment_dim2 <dbl>, leiden <fct>, partition <fct>,
#> #   louvain <fct>, seurat_dim1 <dbl>, seurat_dim2 <dbl>,
#> #   seurat_celltype_l1 <chr>, seurat_celltype_l2 <chr>, leiden_assignment <fct>
…
For more complicated figures, you can return a tibble and make the
plot on your own:

bb_genebubbles(vignette_cds, 
               genes = c("CD3E", "CD14", "CD19"), 
               cell_grouping = c("leiden_assignment", "louvain"),
               return_value = "data")
#> # A tibble: 54 × 13
#>    group feature_id expression proportion id    gene_short_name data_type module
#>    <fct> <chr>           <dbl>      <dbl> <chr> <fct>           <chr>     <fct> 
#>  1 B_10  ENSG00000…    -0.806      0.0909 ENSG… CD14            Gene Exp… 1     
#>  2 B_10  ENSG00000…    -0.669      0.127  ENSG… CD3E            Gene Exp… 2     
#>  3 B_10  ENSG00000…     2.38       0.436  ENSG… CD19            Gene Exp… 3     
#>  4 B_14  ENSG00000…    -0.804      0.0741 ENSG… CD14            Gene Exp… 1     
#>  5 B_14  ENSG00000…    -0.699      0.0741 ENSG… CD3E            Gene Exp… 2     
#>  6 B_14  ENSG00000…     3.08       0.463  ENSG… CD19            Gene Exp… 3     
#>  7 DC/M… ENSG00000…    -0.0876     0.619  ENSG… CD14            Gene Exp… 1     
#>  8 DC/M… ENSG00000…    -0.764      0.0476 ENSG… CD3E            Gene Exp… 2     
#>  9 DC/M… ENSG00000…    -0.355      0      ENSG… CD19            Gene Exp… 3     
#> 10 DC/M… ENSG00000…     1.51       1      ENSG… CD14            Gene Exp… 1     
#> # ℹ 44 more rows
#> # ℹ 5 more variables: module_labeled <fct>, supermodule <fct>,
#> #   supermodule_labeled <fct>, leiden_assignment <fct>, louvain <fct>
…
# Detailed column headers for the results tables.
vignette_pseudobulk_res$Header 
#> [1] "mean of normalized counts for all samples"                
#> [2] "log2 fold change (MLE): leiden_assignment T_NK vs DC_Mono"
#> [3] "standard error: leiden_assignment T_NK vs DC_Mono"        
#> [4] "Wald statistic: leiden_assignment T_NK vs DC_Mono"        
#> [5] "Wald test p-value: leiden_assignment T_NK vs DC_Mono"     
#> [6] "BH adjusted p-values"

# Differential expression results.  Positive L2FC indicates up in T/NK vs DC/Mono

vignette_pseudobulk_res$Result %>%
  dplyr::filter(log2FoldChange > 0) %>%
  arrange(padj)
#> # A tibble: 6,867 × 8
#>    id             gene_short_name baseMean log2FoldChange  lfcSE  stat    pvalue
#>    <chr>          <chr>              <dbl>          <dbl>  <dbl> <dbl>     <dbl>
#>  1 ENSG000000085… IL32                727.           6.08 0.138   44.0 0        
#>  2 ENSG000001672… CD3D                418.           5.81 0.166   35.0 1.23e-268
#>  3 ENSG000001149… EEF1B2             2433.           1.81 0.0578  31.4 3.87e-216
#>  4 ENSG000002477… PCED1B-AS1          320.           4.44 0.146   30.4 2.36e-203
#>  5 ENSG000002117… TRBC2               357.           5.67 0.187   30.3 2.66e-201
#>  6 ENSG000002777… TRAC                276.           5.63 0.187   30.2 5.51e-200
#>  7 ENSG000001271… BCL11B              277.           5.97 0.199   30.1 1.13e-198
#>  8 ENSG000001117… LDHB                368.           2.91 0.0982  29.6 2.80e-192
#>  9 ENSG000001988… CD3E                290.           6.02 0.204   29.6 6.28e-192
#> 10 ENSG000002715… CCL5                295.           5.44 0.188   28.8 6.53e-183
#> # ℹ 6,857 more rows
#> # ℹ 1 more variable: padj <dbl>
  
vignette_pseudobulk_res$Result %>%
  dplyr::filter(log2FoldChange < 0) %>%
  arrange(padj)
#> # A tibble: 6,967 × 8
#>    id          gene_short_name baseMean log2FoldChange  lfcSE  stat pvalue  padj
#>    <chr>       <chr>              <dbl>          <dbl>  <dbl> <dbl>  <dbl> <dbl>
#>  1 ENSG000001… CTSS               2502.          -5.11 0.0940 -54.3      0     0
#>  2 ENSG000001… S100A9             6297.          -5.80 0.0835 -69.5      0     0
#>  3 ENSG000001… S100A8             3384.          -5.82 0.115  -50.6      0     0
#>  4 ENSG000000… CD74               3478.          -4.23 0.0759 -55.7      0     0
#>  5 ENSG000002… LST1                633.          -4.48 0.116  -38.6      0     0
#>  6 ENSG000002… AIF1               1030.          -4.36 0.0982 -44.4      0     0
#>  7 ENSG000002… HLA-DRA            3382.          -5.48 0.109  -50.2      0     0
#>  8 ENSG000002… HLA-DPA1           1101.          -4.83 0.128  -37.7      0     0
#>  9 ENSG000001… PSAP                990.          -4.39 0.0970 -45.3      0     0
#> 10 ENSG000000… LYZ                5176.          -6.44 0.132  -48.8      0     0
#> # ℹ 6,957 more rows
…
